…
    ## Rows: 250 Columns: 5
    ## ── Column specification ────────────────────────────────────────────────────────
    ## Delimiter: ","
    ## dbl (5): SEQN, sex, age, BMI, education
    ## 
    ## ℹ Use `spec()` to retrieve the full column specification for this data.
    ## ℹ Specify the column types or set `show_col_types = FALSE` to quiet this message.

``` r
demo_df
```

    ## # A tibble: 225 × 5
    ##     seqn sex      age   bmi education
    ##    <dbl> <fct>  <dbl> <dbl>     <dbl>
    ##  1 62161 male      22  23.3         2
    ##  2 62164 female    44  23.2         3
    ##  3 62174 male      80  33.9         3
    ##  4 62177 male      51  20.1         2
    ##  5 62178 male      80  28.5         2
    ##  6 62180 male      35  27.9         3
    ##  7 62184 male      26  22.1         2
    ##  8 62189 female    30  22.4         3
    ##  9 62199 male      57  28           3
    ## 10 62202 male      36  24.7         1
    ## # ℹ 215 more rows
…
    ## Rows: 250 Columns: 1441
    ## ── Column specification ────────────────────────────────────────────────────────
    ## Delimiter: ","
    ## dbl (1441): SEQN, min1, min2, min3, min4, min5, min6, min7, min8, min9, min1...
    ## 
    ## ℹ Use `spec()` to retrieve the full column specification for this data.
    ## ℹ Specify the column types or set `show_col_types = FALSE` to quiet this message.

``` r
acc_df
```

    ## # A tibble: 360,000 × 3
    ##     seqn minute  mims
    ##    <dbl> <fct>  <dbl>
    ##  1 62161 1      1.11 
    ##  2 62161 2      3.12 
    ##  3 62161 3      1.47 
    ##  4 62161 4      0.938
    ##  5 62161 5      1.60 
    ##  6 62161 6      0.145
    ##  7 62161 7      2.10 
    ##  8 62161 8      0.509
    ##  9 62161 9      1.63 
    ## 10 62161 10     1.20 
    ## # ℹ 359,990 more rows

``` r
merge_df = 
  left_join(acc_df, demo_df, by = "seqn")
merge_df
```

    ## # A tibble: 360,000 × 7
    ##     seqn minute  mims sex     age   bmi education
    ##    <dbl> <fct>  <dbl> <fct> <dbl> <dbl>     <dbl>
    ##  1 62161 1      1.11  male     22  23.3         2
    ##  2 62161 2      3.12  male     22  23.3         2
    ##  3 62161 3      1.47  male     22  23.3         2
    ##  4 62161 4      0.938 male     22  23.3         2
    ##  5 62161 5      1.60  male     22  23.3         2
    ##  6 62161 6      0.145 male     22  23.3         2
    ##  7 62161 7      2.10  male     22  23.3         2
    ##  8 62161 8      0.509 male     22  23.3         2
    ##  9 62161 9      1.63  male     22  23.3         2
    ## 10 62161 10     1.20  male     22  23.3         2
    ## # ℹ 359,990 more rows
…
